%YAML 1.1
%TAG !u! tag:unity3d.com,2011:
--- !u!114 &11400000
MonoBehaviour:
  m_ObjectHideFlags: 0
  m_PrefabParentObject: {fileID: 0}
  m_PrefabInternal: {fileID: 0}
  m_GameObject: {fileID: 0}
  m_Enabled: 1
  m_EditorHideFlags: 0
  m_Script: {fileID: 11500000, guid: 526c8a90df31d41fe8057a6f85c7a3e4, type: 3}
  m_Name: ArcMapVisualizer
  m_EditorClassIdentifier: 
  Factories:
  - {fileID: 11400000, guid: 8b742a7b21938844998a6521ff9ae66f, type: 2}
  - {fileID: 11400000, guid: 83ca475a9b201644f8ac1cdf47a61315, type: 2}
  - {fileID: 11400000, guid: 1542129288d3167499c9d11526532d97, type: 2}
  _loadingTexture: {fileID: 0}
