%YAML 1.1
%TAG !u! tag:unity3d.com,2011:
--- !u!114 &11400000
MonoBehaviour:
  m_ObjectHideFlags: 0
  m_PrefabParentObject: {fileID: 0}
  m_PrefabInternal: {fileID: 0}
  m_GameObject: {fileID: 0}
  m_Enabled: 1
  m_EditorHideFlags: 0
  m_Script: {fileID: 11500000, guid: a7dfb85d33966074ebf2acd2de263474, type: 3}
  m_Name: ArcMapHeightModifier
  m_EditorClassIdentifier: 
  Active: 1
  _flatTops: 1
  _forceHeight: 1
  _height: 3
  _createSideWalls: 1
  _separateSubmesh: 0
