%YAML 1.1
%TAG !u! tag:unity3d.com,2011:
--- !u!114 &11400000
MonoBehaviour:
  m_ObjectHideFlags: 0
  m_PrefabParentObject: {fileID: 0}
  m_PrefabInternal: {fileID: 0}
  m_GameObject: {fileID: 0}
  m_Enabled: 1
  m_EditorHideFlags: 0
  m_Script: {fileID: 11500000, guid: 25f09effe9db3dd4e9e825475d698ca3, type: 3}
  m_Name: EnvAssetsModifierStack
  m_EditorClassIdentifier: 
  _moveFeaturePositionTo: 0
  MeshModifiers:
  - {fileID: 11400000, guid: 7b6ec4665f93eb543b4c86f7949daf02, type: 2}
  GoModifiers:
  - {fileID: 11400000, guid: c3ee9fb0d33c7374f95e325db94d2534, type: 2}
  - {fileID: 11400000, guid: 4aeb0629486794f25bf199af8a4f4830, type: 2}
