%YAML 1.1
%TAG !u! tag:unity3d.com,2011:
--- !u!114 &11400000
MonoBehaviour:
  m_ObjectHideFlags: 0
  m_PrefabParentObject: {fileID: 0}
  m_PrefabInternal: {fileID: 0}
  m_GameObject: {fileID: 0}
  m_Enabled: 1
  m_EditorHideFlags: 0
  m_Script: {fileID: 11500000, guid: 120e43a7012622e49aca0c9217acd1f9, type: 3}
  m_Name: MapVectorLayer
  m_EditorClassIdentifier: 
  Active: 1
  _classificationKey: 
  _key: building
  Filters: []
  _defaultStack: {fileID: 11400000, guid: 7dcda77afd5f88d42a334847f44b272b, type: 2}
  Stacks: []
  _enableCoroutines: 0
  _entityPerCoroutine: 20
